<svg width="47" height="34" viewBox="0 0 47 34" fill="none" xmlns="http://www.w3.org/2000/svg">
<path d="M29.9025 8.95896C29.6357 8.99568 29.4472 9.24045 29.4839 9.50726C29.5182 9.75448 29.7287 9.93317 29.971 9.93072C29.971 9.92583 29.9686 9.92093 29.9661 9.92093C29.9637 9.92093 29.9637 9.92093 29.9661 9.92093C29.9735 9.92093 29.9979 9.92583 30.0028 9.92828C30.0004 9.92828 30.0028 9.92828 30.0028 9.92828C30.0077 9.92828 30.0249 9.92583 30.0322 9.92583C30.0126 9.92828 29.9906 9.93072 29.971 9.93072C29.9735 9.95275 29.9612 10.0066 29.9759 10.0923C30.0175 10.3224 30.0028 10.6308 29.9221 10.9637C29.8658 11.1986 29.7825 11.4043 29.6895 11.5683C29.6087 11.7078 29.528 11.8057 29.4594 11.8498L29.7165 12.2659L29.4594 11.8498C29.3224 11.9354 29.2416 12.0774 29.2293 12.2267C29.0188 13.9426 28.2943 15.4528 27.254 16.5299C26.2431 17.5751 24.9311 18.2066 23.5016 18.2066C22.0696 18.2066 20.7577 17.5751 19.7492 16.5299C18.7039 15.4504 17.9819 13.9328 17.7714 12.2096L17.2867 12.2659L17.7738 12.2072C17.7543 12.0456 17.6563 11.911 17.5242 11.8375C17.4581 11.7886 17.3871 11.6956 17.3137 11.5707C17.2206 11.4067 17.1374 11.2011 17.0811 10.9661C17.0003 10.6357 16.9857 10.3273 17.0273 10.0947C17.0395 10.0262 17.0346 9.97726 17.0346 9.95033C17.2623 10.0017 17.4997 9.8818 17.5903 9.65905C17.6931 9.40938 17.5731 9.12544 17.3235 9.02265C17.2329 8.98593 17.1448 8.9639 17.0542 8.95656C16.9759 8.94921 16.8951 8.95656 16.8168 8.97369C16.7996 8.97614 16.7825 8.98103 16.7629 8.98593C16.3908 9.09608 16.1534 9.44611 16.0653 9.92343C15.9992 10.2808 16.0163 10.7337 16.1314 11.1962C16.2122 11.5218 16.3296 11.8155 16.4692 12.0578C16.5769 12.2439 16.6993 12.403 16.829 12.5254C17.0958 14.3807 17.9011 16.0208 19.0467 17.208C20.2387 18.4417 21.7955 19.1857 23.5041 19.1857C25.2126 19.1857 26.7694 18.4392 27.9615 17.208C29.107 16.0208 29.9148 14.3808 30.1792 12.5254C30.3113 12.403 30.4337 12.2439 30.539 12.0578C30.6785 11.8155 30.796 11.5218 30.8768 11.1962C30.9894 10.7336 31.0065 10.2808 30.9429 9.92343C30.8547 9.44611 30.6149 9.09609 30.2428 8.98593C30.184 8.96879 30.1278 8.959 30.0739 8.95411C30.02 8.94921 29.9638 8.95166 29.9074 8.96145L29.9025 8.95896ZM16.8949 9.45341L16.9855 9.76427V9.76182L16.8949 9.45585V9.45341ZM16.9855 9.76427L16.9977 9.80343V9.80099L16.9855 9.76182V9.76427ZM17.032 9.92093V9.92338C17.0271 9.92582 17.0271 9.93317 17.0271 9.9503C17.0002 9.94541 16.9733 9.93561 16.9463 9.92582C16.9512 9.92582 16.9635 9.93072 16.9708 9.93072H16.9733C16.9757 9.93072 16.9757 9.93072 16.9733 9.93072H16.9708H16.9733C16.9831 9.92827 17.0173 9.92338 17.032 9.92338L17.032 9.92093ZM17.2719 9.13764C17.3135 9.18905 17.3478 9.24779 17.3674 9.31633C17.4432 9.57579 17.2939 9.8475 17.0345 9.92338V9.92093L17.0002 9.80099L17.2719 9.13764ZM17.0345 9.92093C17.0394 9.92093 17.0394 9.92093 17.0345 9.92338V9.92093Z" fill="black"/>
<path d="M19.1051 20.4414H19.8467L20.1649 20.5589C20.6447 20.9701 21.1808 21.2957 21.756 21.5159C22.3043 21.7265 22.8918 21.8415 23.4988 21.8415C24.1083 21.8415 24.6933 21.7265 25.2441 21.5159C25.8193 21.2956 26.3529 20.9701 26.8351 20.5589L27.1534 20.4414H27.895C29.8141 20.4414 31.5594 21.2271 32.8248 22.4902C34.0903 23.7556 34.8736 25.4985 34.8736 27.42V33.2481H12.1314V27.42C12.1314 25.5009 12.9171 23.7556 14.1802 22.4902C15.4456 21.2247 17.1885 20.4414 19.11 20.4414H19.1051ZM19.6729 21.4205H19.1051C17.4553 21.4205 15.9573 22.0961 14.868 23.1829C13.7812 24.2697 13.1056 25.7702 13.1056 27.42V32.269H33.8896V27.42C33.8896 25.7702 33.214 24.2722 32.1272 23.1829C31.0404 22.0961 29.5399 21.4205 27.8901 21.4205H27.3222C26.7935 21.8489 26.211 22.1916 25.5868 22.4314C24.9283 22.6836 24.2234 22.8206 23.494 22.8206C22.7645 22.8206 22.062 22.6836 21.4012 22.4314C20.7794 22.194 20.1969 21.8513 19.6657 21.4205H19.6729Z" fill="black"/>
<path d="M26.3213 21.2809L25.8391 17.7879L26.806 17.6582L27.2882 21.1512L26.3213 21.2809Z" fill="black"/>
<path d="M19.7097 21.1512L20.192 17.6582L21.1588 17.7879L20.6766 21.2809L19.7097 21.1512Z" fill="black"/>
<path d="M16.6449 9.45329C16.6351 9.72254 16.8432 9.95018 17.1124 9.95997C17.3817 9.96976 17.6093 9.7617 17.6191 9.49245C17.6289 9.26481 17.6363 9.01759 17.6436 8.77283C17.6926 7.07655 17.7366 5.52953 18.936 4.18084C19.3644 3.69863 19.9665 3.22624 20.7988 2.90064C21.4891 2.63139 22.336 2.46005 23.3788 2.46249C28.076 2.47473 28.2522 5.09138 28.2522 5.09871L28.7393 5.05955L28.2522 5.10116C28.2718 5.31901 28.4285 5.49035 28.6292 5.53686C28.8274 5.60295 30.3157 6.2051 29.4932 9.32113C29.4247 9.58304 29.5814 9.84984 29.8408 9.91838C30.1027 9.98692 30.3695 9.83026 30.4381 9.57079C31.3266 6.20023 29.8408 5.0498 29.1726 4.71443C28.9621 3.85771 27.9683 1.50296 23.3787 1.49075C22.2014 1.4883 21.2345 1.68412 20.4439 1.99254C19.4451 2.38418 18.7231 2.95203 18.2066 3.53216C16.7722 5.14278 16.7233 6.86356 16.6694 8.74589C16.6621 8.97108 16.6572 9.19873 16.645 9.45329L16.6449 9.45329Z" fill="black"/>
<path d="M42.873 6.03813C42.6062 6.07485 42.4178 6.31963 42.4545 6.58643C42.4863 6.82387 42.6846 6.99766 42.9171 7.00989C42.9269 7.005 42.9293 7.00255 42.9122 6.99766C42.9073 6.99766 42.9098 6.99521 42.9122 6.99766C42.922 6.99766 42.9489 7.005 42.9587 7.00745L42.9734 6.79204L42.9587 7.005H42.9612L42.9758 6.79694L43.0028 7.005C42.9954 7.005 42.9709 7.005 42.9612 7.00744H42.9587C42.9563 7.00744 42.9563 7.00744 42.9587 7.00744H42.9709C42.9514 7.00989 42.9342 7.00989 42.9146 7.00744C42.8951 7.01479 42.8461 7.02703 42.8535 7.0613C42.8853 7.23509 42.873 7.47252 42.8118 7.72709C42.7678 7.90822 42.7041 8.06733 42.6332 8.19216C42.5769 8.29253 42.523 8.35861 42.4789 8.38554L42.736 8.80166L42.4789 8.38554C42.3419 8.47121 42.2611 8.61073 42.2489 8.76005C42.08 10.1259 41.5047 11.3278 40.6774 12.1844C39.8795 13.0118 38.8416 13.5111 37.7107 13.5111C36.5798 13.5111 35.542 13.0118 34.744 12.1844C33.9142 11.3253 33.3365 10.1161 33.1701 8.74532L32.6854 8.80162L33.1725 8.74287C33.1529 8.58132 33.0575 8.44914 32.9253 8.37571C32.8837 8.34388 32.8372 8.28025 32.7882 8.19457C32.7172 8.06974 32.6536 7.91064 32.6095 7.7295C32.5483 7.47493 32.5361 7.23994 32.5679 7.0637C32.5704 7.04902 32.5655 7.03923 32.5557 7.03188C32.7515 7.03678 32.9375 6.92173 33.0183 6.72836C33.1211 6.47869 33.0012 6.19475 32.7515 6.09196C32.6707 6.05769 32.5875 6.03811 32.5067 6.03077C32.4358 6.02587 32.3648 6.03077 32.2938 6.04545C32.2742 6.0479 32.2571 6.0528 32.2375 6.05769C31.8997 6.15805 31.6843 6.46647 31.6084 6.88747C31.5546 7.18855 31.5668 7.56793 31.6623 7.95468C31.7284 8.22638 31.8287 8.47361 31.9438 8.67675C32.0294 8.82361 32.1249 8.95089 32.2277 9.0537C32.4505 10.5615 33.1089 11.8931 34.0415 12.86C35.023 13.8758 36.3057 14.4878 37.7131 14.4878C39.1206 14.4878 40.4033 13.8734 41.3848 12.86C42.3199 11.8931 42.9759 10.5615 43.1986 9.0537C43.3014 8.95089 43.3993 8.82361 43.4825 8.67675C43.6 8.47358 43.6979 8.22636 43.764 7.95713C43.8595 7.57038 43.8717 7.19095 43.8179 6.88992C43.742 6.4689 43.5241 6.15802 43.1863 6.05769C43.1521 6.0479 43.1203 6.04056 43.086 6.03566C43.0689 6.03321 43.0493 6.03077 43.0321 6.02832C42.9832 6.02587 42.9293 6.02587 42.8779 6.03321L42.873 6.03813ZM32.367 6.53014L32.4404 6.77981V6.77736L32.367 6.53014ZM32.4404 6.77981L32.4502 6.81163V6.80918L32.4404 6.77736V6.77981ZM32.5041 6.99521V6.99766C32.4674 7.00745 32.5237 7.0099 32.5481 7.03193C32.4894 7.02948 32.4306 7.01969 32.3719 6.99521C32.3792 6.99521 32.4086 7.00256 32.4184 7.00745H32.4209C32.4233 7.00745 32.4233 7.0099 32.4209 7.0099C32.416 7.0099 32.416 7.0099 32.4184 7.00745H32.4209C32.4331 7.005 32.482 6.99766 32.5016 6.99766L32.5041 6.99521ZM32.7097 6.17765C32.7684 6.23395 32.8125 6.30738 32.837 6.39061C32.9128 6.65007 32.7635 6.92177 32.5041 6.99765V6.99276L32.4502 6.80673L32.7097 6.17521L32.7097 6.17765ZM32.5041 6.99521C32.509 6.99521 32.5114 6.99521 32.5041 6.99766V6.99521Z" fill="black"/>
<path d="M34.1566 15.3232H34.7563L35.0746 15.4407C35.454 15.7663 35.8774 16.0233 36.3327 16.1971C36.766 16.3635 37.2286 16.4541 37.7108 16.4541C38.1905 16.4541 38.6532 16.3635 39.0889 16.1971C39.5441 16.0233 39.9676 15.7663 40.347 15.4407L40.6652 15.3232H41.2649C42.8437 15.3232 44.2781 15.9694 45.3159 17.0073C46.3563 18.0476 47 19.482 47 21.0583V25.8658H35.4487C35.3802 25.5329 35.2896 25.2048 35.177 24.8866H46.0208V21.0583C46.0208 19.7512 45.4848 18.5616 44.6231 17.7C43.7615 16.8384 42.5719 16.3023 41.2648 16.3023H40.8389C40.4105 16.645 39.9381 16.9216 39.4363 17.1125C38.8929 17.3206 38.3128 17.4332 37.7106 17.4332C37.1085 17.4332 36.5308 17.3206 35.985 17.1125C35.4832 16.9191 35.0107 16.645 34.5824 16.3023H34.1565C32.8494 16.3023 31.6597 16.8383 30.7981 17.7C30.2009 18.2972 29.7627 19.0487 29.5473 19.8883C29.2291 19.8173 28.9036 19.7683 28.5755 19.739C28.8252 18.6889 29.3661 17.7489 30.1054 17.0097C31.1457 15.9694 32.5801 15.3256 34.1564 15.3256L34.1566 15.3232Z" fill="black"/>
<path d="M39.8966 16.1087L39.5074 13.284L40.4767 13.1519L40.8659 15.9766L39.8966 16.1087Z" fill="black"/>
<path d="M34.5533 15.9766L34.9425 13.1519L35.9094 13.284L35.5202 16.1087L34.5533 15.9766Z" fill="black"/>
<path d="M32.0737 6.52819C32.0639 6.79745 32.272 7.02509 32.5413 7.03488C32.8105 7.04467 33.0382 6.83661 33.0479 6.56736C33.0553 6.38623 33.0602 6.18551 33.0675 5.98479C33.1067 4.63115 33.141 3.39751 34.0907 2.33274C34.4285 1.95334 34.9034 1.57885 35.5618 1.3218C36.1101 1.1064 36.7832 0.971774 37.613 0.974218C41.3238 0.984009 41.4609 3.01809 41.4609 3.02298L41.948 2.98137L41.4609 3.02298C41.4805 3.23838 41.6371 3.40973 41.8354 3.45868C41.9994 3.51498 43.1058 3.98495 42.4669 6.40333C42.3984 6.66524 42.555 6.93204 42.8145 7.00058C43.0764 7.06912 43.3432 6.91246 43.4117 6.65299C44.1314 3.92861 42.9614 2.94706 42.3788 2.63869C42.1805 1.88968 41.3165 0.0122442 37.613 0.00246883C36.6486 2.12246e-05 35.8555 0.161576 35.2044 0.416143C34.3819 0.739245 33.7871 1.20676 33.3588 1.68651C32.1765 3.01565 32.1349 4.42067 32.0908 5.96274C32.0859 6.14387 32.081 6.32501 32.0713 6.53307L32.0737 6.52819Z" fill="black"/>
<path d="M14.4542 6.03814C14.1874 6.07485 13.9989 6.31963 14.0357 6.58644C14.0675 6.82387 14.2658 6.99766 14.4983 7.0099C14.5081 7.005 14.5105 7.00256 14.4934 6.99766C14.4885 6.99766 14.4909 6.99521 14.4934 6.99766C14.5032 6.99766 14.5301 7.005 14.5399 7.00745L14.5546 6.79205L14.5399 7.005H14.5423L14.557 6.79694L14.584 7.005C14.5766 7.005 14.5521 7.005 14.5423 7.00745H14.5399C14.5374 7.00745 14.5374 7.00745 14.5399 7.00745H14.5521C14.5326 7.0099 14.5154 7.0099 14.4958 7.00745C14.4763 7.01479 14.4273 7.02703 14.4346 7.0613C14.4665 7.23509 14.4542 7.47253 14.393 7.72709C14.349 7.90823 14.2853 8.06733 14.2143 8.19217C14.158 8.29253 14.1042 8.35861 14.0601 8.38554L14.3172 8.80166L14.0601 8.38554C13.9231 8.47121 13.8423 8.61074 13.83 8.76005C13.6611 10.1259 13.0859 11.3278 12.2586 12.1844C11.4606 13.0118 10.4228 13.5111 9.29188 13.5111C8.16101 13.5111 7.12319 13.0118 6.32517 12.1844C5.49539 11.3253 4.91771 10.1161 4.75127 8.74533L4.26661 8.80162L4.75372 8.74288C4.73414 8.58133 4.63868 8.44914 4.50649 8.37571C4.46488 8.34389 4.41838 8.28025 4.36942 8.19458C4.29844 8.06974 4.23479 7.91064 4.19073 7.7295C4.12954 7.47493 4.1173 7.23995 4.14912 7.06371C4.15157 7.04902 4.14667 7.03923 4.13688 7.03189C4.3327 7.03678 4.51873 6.92174 4.59951 6.72837C4.70231 6.47869 4.58237 6.19476 4.3327 6.09197C4.25192 6.0577 4.1687 6.03811 4.08793 6.03077C4.01694 6.02588 3.94596 6.03077 3.87497 6.04546C3.85784 6.04791 3.83826 6.0528 3.82112 6.0577C3.48333 6.15806 3.26793 6.46647 3.19205 6.88748C3.1382 7.18855 3.15044 7.56793 3.2459 7.95469C3.31199 8.22638 3.41235 8.47361 3.5274 8.67675C3.61307 8.82362 3.70853 8.9509 3.81133 9.0537C4.03408 10.5615 4.6925 11.8931 5.62511 12.86C6.60666 13.8758 7.8893 14.4878 9.29677 14.4878C10.7042 14.4878 11.9869 13.8734 12.9684 12.86C13.9035 11.8931 14.5595 10.5615 14.7822 9.0537C14.885 8.9509 14.9829 8.82361 15.0661 8.67675C15.1836 8.47358 15.2815 8.22636 15.3476 7.95469C15.4431 7.56794 15.4553 7.18851 15.4015 6.88748C15.3256 6.46646 15.1078 6.15557 14.77 6.05525C14.7357 6.04546 14.7039 6.03812 14.6696 6.03322C14.6525 6.03077 14.6329 6.02833 14.6133 6.02588C14.5644 6.02343 14.5105 6.02343 14.4591 6.03077L14.4542 6.03814ZM3.94819 6.53014L4.02162 6.77981V6.77737L3.94819 6.53014ZM4.02162 6.77981L4.03141 6.81163L4.02162 6.77981V6.78226V6.77981ZM4.08526 6.99522V6.99766C4.04855 7.00746 4.10484 7.0099 4.12932 7.03193C4.07058 7.02949 4.01183 7.01969 3.95308 6.99522C3.96043 6.99522 3.9898 7.00256 3.99959 7.00746H4.00204C4.00449 7.00746 4.00449 7.0099 4.00204 7.0099C3.99714 7.0099 3.99714 7.0099 3.99959 7.00746H4.00204C4.01428 7.00501 4.06323 6.99766 4.08282 6.99766L4.08526 6.99522ZM4.29087 6.17766C4.34962 6.23395 4.39368 6.30739 4.41815 6.39061C4.49403 6.65007 4.34472 6.92178 4.08526 6.99765V6.99276L4.0314 6.80673L4.29087 6.17522L4.29087 6.17766ZM4.08526 6.99522C4.09016 6.99522 4.0926 6.99522 4.08526 6.99766V6.99522Z" fill="black"/>
<path d="M5.73533 15.3227H6.33503L6.65324 15.4402C7.03264 15.7657 7.45607 16.0228 7.91138 16.1965C8.34464 16.363 8.80727 16.4536 9.28946 16.4536C9.76922 16.4536 10.2318 16.363 10.6675 16.1965C11.1228 16.0227 11.5463 15.7657 11.9257 15.4402L12.2439 15.3227H12.8436C14.4224 15.3227 15.8568 15.9689 16.8946 17.0068C17.6338 17.746 18.1748 18.6884 18.4245 19.736C18.0965 19.7654 17.7709 19.8144 17.4527 19.8854C17.2373 19.0458 16.7991 18.2943 16.2019 17.697C15.3403 16.8354 14.1507 16.2994 12.8435 16.2994H12.4176C11.9893 16.642 11.5168 16.9186 11.015 17.1096C10.4716 17.3176 9.89149 17.4302 9.28937 17.4302C8.68722 17.4302 8.10955 17.3176 7.5637 17.1096C7.06191 16.9162 6.58948 16.6421 6.16112 16.2994H5.7352C4.42812 16.2994 3.23847 16.8354 2.37686 17.697C1.51524 18.5587 0.979163 19.7483 0.979163 21.0554V24.8837H11.823C11.7104 25.2019 11.6198 25.5299 11.5513 25.8628H0V21.0554C0 19.4766 0.646178 18.0422 1.68406 17.0044C2.72439 15.964 4.15874 15.3203 5.73508 15.3203L5.73533 15.3227Z" fill="black"/>
<path d="M11.4777 16.1087L11.0885 13.284L12.0554 13.1519L12.4446 15.9766L11.4777 16.1087Z" fill="black"/>
<path d="M6.13199 15.9766L6.52118 13.1519L7.49051 13.284L7.10132 16.1087L6.13199 15.9766Z" fill="black"/>
<path d="M3.65242 6.5282C3.64263 6.79745 3.85069 7.02509 4.11994 7.03488C4.3892 7.04467 4.61684 6.83661 4.62663 6.56736C4.63397 6.38623 4.63887 6.18306 4.64621 5.98479C4.68538 4.63115 4.71964 3.39751 5.66937 2.33274C6.00716 1.95334 6.48204 1.57885 7.1405 1.3218C7.6888 1.1064 8.36192 0.971776 9.1917 0.97422C12.9025 0.984011 13.0396 3.01809 13.0396 3.02298L13.5267 2.98137L13.0396 3.02298C13.0592 3.23838 13.2158 3.40973 13.4141 3.45868C13.5781 3.51498 14.6844 3.98495 14.0456 6.40333C13.9771 6.66524 14.1337 6.93205 14.3932 7.00058C14.6551 7.06912 14.9219 6.91246 14.9904 6.653C15.7101 3.92861 14.54 2.94706 13.9575 2.63869C13.7592 1.88969 12.8952 0.0122467 9.19169 2.74261e-05C8.22724 -0.00242018 7.43418 0.159134 6.78305 0.413702C5.96061 0.73681 5.36581 1.20432 4.93745 1.68406C3.75519 3.0132 3.71358 4.41823 3.66953 5.9603C3.66463 6.14143 3.65974 6.32256 3.64995 6.53307L3.65242 6.5282Z" fill="black"/>
</svg>
